......................
----------------------------------------------------------------------
Ran 22 tests in 0.124s

OK
Name             Stmts   Miss Branch BrPart  Cover   Missing
------------------------------------------------------------
Collatz.py          37      1     14      1    96%   163->164, 164
TestCollatz.py      93      0      2      1    99%   159->exit
------------------------------------------------------------
TOTAL              130      1     16      2    98%
